C:\Users\vaidehic\Desktop\SonarQube\sonarqube-demo-master\src\main\java\com\gainjavaknowledge\sonarqubedemo\controller\MessageController.java
C:\Users\vaidehic\Desktop\SonarQube\sonarqube-demo-master\src\main\java\com\gainjavaknowledge\sonarqubedemo\service\MessageServiceImpl.java
C:\Users\vaidehic\Desktop\SonarQube\sonarqube-demo-master\src\main\java\com\gainjavaknowledge\sonarqubedemo\SonarqubeDemoApplication.java
